…
```
## # A tibble: 1 x 3
##   n_genera n_species n_observations
##      <int>     <int>          <int>
## 1       26        40          34786
```

```r
deserts %>% 
  count(genus,species) %>% 
  arrange(n)
```

```
## # A tibble: 48 x 3
##    genus           species          n
##    <chr>           <chr>        <int>
##  1 Cnemidophorus   tigris           1
##  2 Cnemidophorus   uniparens        1
##  3 Crotalus        scutalatus       1
##  4 Crotalus        viridis          1
##  5 Sceloporus      clarki           1
##  6 Spermophilus    tereticaudus     1
##  7 Ammodramus      savannarum       2
##  8 Reithrodontomys sp.              2
##  9 Zonotrichia     leucophrys       2
## 10 Lizard          sp.              4
## # ... with 38 more rows
```


```r
deserts %>% 
  count(genus,species) %>% 
  arrange(desc(n))
```

```
## # A tibble: 48 x 3
##    genus           species          n
##    <chr>           <chr>        <int>
##  1 Dipodomys       merriami     10596
##  2 Chaetodipus     penicillatus  3123
##  3 Dipodomys       ordii         3027
##  4 Chaetodipus     baileyi       2891
##  5 Reithrodontomys megalotis     2609
##  6 Dipodomys       spectabilis   2504
##  7 Onychomys       torridus      2249
##  8 Perognathus     flavus        1597
##  9 Peromyscus      eremicus      1299
## 10 Neotoma         albigula      1252
## # ... with 38 more rows
```
…
6. Add another layer to your answer from #5 using `geom_point` to get an idea of how many measurements were taken for each species.

```r
deserts_counts <- deserts %>% 
  count(species)
deserts_counts
```

```
## # A tibble: 40 x 2
##    species             n
##  * <chr>           <int>
##  1 albigula         1252
##  2 audubonii          75
##  3 baileyi          2891
##  4 bilineata         303
##  5 brunneicapillus    50
##  6 chlorurus          39
##  7 clarki              1
##  8 eremicus         1299
##  9 flavus           1597
## 10 fulvescens         75
## # ... with 30 more rows
```
…
9. Which two species have, on average, the highest weight? Once you have identified them, make a new column that is a ratio of `weight` to `hindfoot_length`. Make a plot that shows the range of this new ratio and fill by sex.

```r
deserts %>% 
  group_by(genus, species) %>% 
  summarize(avg_weight=mean(weight, na.rm = T)) %>% 
  arrange(desc(avg_weight))
```

```
## `summarise()` has grouped output by 'genus'. You can override using the `.groups` argument.
```

```
## # A tibble: 48 x 3
## # Groups:   genus [26]
##    genus        species      avg_weight
##    <chr>        <chr>             <dbl>
##  1 Neotoma      albigula          159. 
##  2 Dipodomys    spectabilis       120. 
##  3 Spermophilus spilosoma          93.5
##  4 Sigmodon     hispidus           73.1
##  5 Sigmodon     fulviventer        58.9
##  6 Sigmodon     ochrognathus       55.4
##  7 Dipodomys    ordii              48.9
##  8 Dipodomys    merriami           43.2
##  9 Chaetodipus  baileyi            31.7
## 10 Onychomys    leucogaster        31.6
## # ... with 38 more rows
```

```r
deserts_chunk <- deserts %>% 
  filter(species=="albigula"|species=="spectabilis") %>% 
  mutate(weight_length_ratio=weight/hindfoot_length)
deserts_chunk
```

```
## # A tibble: 3,756 x 14
##    record_id month   day  year plot_id species_id sex   hindfoot_length weight
##        <dbl> <dbl> <dbl> <dbl>   <dbl> <chr>      <chr>           <dbl>  <dbl>
##  1         1     7    16  1977       2 NL         M                  32     NA
##  2         2     7    16  1977       3 NL         M                  33     NA
##  3        11     7    16  1977       5 DS         F                  53     NA
##  4        17     7    16  1977       3 DS         F                  48     NA
##  5        20     7    17  1977      11 DS         F                  48     NA
##  6        22     7    17  1977      15 NL         F                  31     NA
##  7        30     7    17  1977      10 DS         F                  52     NA
##  8        38     7    17  1977      17 NL         M                  33     NA
##  9        42     7    18  1977      18 DS         F                  46     NA
## 10        58     7    18  1977      12 DS         M                  45     NA
## # ... with 3,746 more rows, and 5 more variables: genus <chr>, species <chr>,
## #   taxa <chr>, plot_type <chr>, weight_length_ratio <dbl>
```
…
```
## `summarise()` has grouped output by 'year'. You can override using the `.groups` argument.
```

```r
ordii_means
```

```
## # A tibble: 52 x 3
## # Groups:   year [26]
##     year sex   avg_hindfoot
##    <dbl> <chr>        <dbl>
##  1  1977 F             33.6
##  2  1977 M             33  
##  3  1978 F             32.6
##  4  1978 M             34.6
##  5  1979 F             33.6
##  6  1979 M             34.5
##  7  1980 F             35  
##  8  1980 M             34.5
##  9  1981 F             36.1
## 10  1981 M             35.6
## # ... with 42 more rows
```
…
