…
```r
gapminder %>% 
  group_by(year, continent) %>% 
  summarise(min_life=min(lifeExp),
            mean_life=mean(lifeExp),
            max_life=max(lifeExp))
```

```
## `summarise()` has grouped output by 'year'. You can override using the `.groups` argument.
```

```
## # A tibble: 60 x 5
## # Groups:   year [12]
##     year continent min_life mean_life max_life
##    <int> <fct>        <dbl>     <dbl>    <dbl>
##  1  1952 Africa        30        39.1     52.7
##  2  1952 Americas      37.6      53.3     68.8
##  3  1952 Asia          28.8      46.3     65.4
##  4  1952 Europe        43.6      64.4     72.7
##  5  1952 Oceania       69.1      69.3     69.4
##  6  1957 Africa        31.6      41.3     58.1
##  7  1957 Americas      40.7      56.0     70.0
##  8  1957 Asia          30.3      49.3     67.8
##  9  1957 Europe        48.1      66.7     73.5
## 10  1957 Oceania       70.3      70.3     70.3
## # ... with 50 more rows
```
…
```
## `summarise()` has grouped output by 'year'. You can override using the `.groups` argument.
```

```r
gapminder_life_countries
```

```
## # A tibble: 60 x 3
## # Groups:   year [12]
##     year continent mean_life
##    <int> <fct>         <dbl>
##  1  1952 Africa         39.1
##  2  1952 Americas       53.3
##  3  1952 Asia           46.3
##  4  1952 Europe         64.4
##  5  1952 Oceania        69.3
##  6  1957 Africa         41.3
##  7  1957 Americas       56.0
##  8  1957 Asia           49.3
##  9  1957 Europe         66.7
## 10  1957 Oceania        70.3
## # ... with 50 more rows
```
…
**7. Which countries have had the largest population growth since 1952?**

```r
gapminder_pop <- gapminder %>% 
  filter(year==1952|year==2007) %>%
  group_by(country) %>% 
  summarize(min=min(pop),
            max=max(pop))
gapminder_pop
```

```
## # A tibble: 142 x 3
##    country          min       max
##  * <fct>          <int>     <int>
##  1 Afghanistan  8425333  31889923
##  2 Albania      1282697   3600523
##  3 Algeria      9279525  33333216
##  4 Angola       4232095  12420476
##  5 Argentina   17876956  40301927
##  6 Australia    8691212  20434176
##  7 Austria      6927772   8199783
##  8 Bahrain       120447    708573
##  9 Bangladesh  46886859 150448339
## 10 Belgium      8730405  10392226
## # ... with 132 more rows
```

```r
gapminder_pop %>% 
  mutate(pop_growth = max-min) %>% 
  arrange(desc(pop_growth))
```

```
## # A tibble: 142 x 4
##    country             min        max pop_growth
##    <fct>             <int>      <int>      <int>
##  1 China         556263527 1318683096  762419569
##  2 India         372000000 1110396331  738396331
##  3 United States 157553000  301139947  143586947
##  4 Indonesia      82052000  223547000  141495000
##  5 Brazil         56602560  190010647  133408087
##  6 Pakistan       41346560  169270617  127924057
##  7 Bangladesh     46886859  150448339  103561480
##  8 Nigeria        33119096  135031164  101912068
##  9 Mexico         30144317  108700891   78556574
## 10 Philippines    22438691   91077287   68638596
## # ... with 132 more rows
```
…
