…
2. Which cities in California have the highest number of colleges?

```r
colleges %>% 
  group_by(city) %>% 
  count() %>% 
  arrange(desc(n))
```

```
## # A tibble: 161 x 2
## # Groups:   city [161]
##    city              n
##    <chr>         <int>
##  1 Los Angeles      24
##  2 San Diego        18
##  3 San Francisco    15
##  4 Sacramento       10
##  5 Berkeley          9
##  6 Oakland           9
##  7 Claremont         7
##  8 Pasadena          6
##  9 Fresno            5
## 10 Irvine            5
## # … with 151 more rows
```
…
4. The column `COSTT4_A` is the annual cost of each institution. Which city has the highest average cost? Where is it located?   
The most expensive college is Harvey Mudd, in Claremont, California.

```r
colleges %>% 
  select(instnm, city, costt4_a) %>% 
  arrange(desc(costt4_a))
```

```
## # A tibble: 341 x 3
##    instnm                                        city          costt4_a
##    <chr>                                         <chr>            <dbl>
##  1 Harvey Mudd College                           Claremont        69355
##  2 Southern California Institute of Architecture Los Angeles      67225
##  3 University of Southern California             Los Angeles      67064
##  4 Occidental College                            Los Angeles      67046
##  5 Claremont McKenna College                     Claremont        66325
##  6 Pepperdine University                         Malibu           66152
##  7 Scripps College                               Claremont        66060
##  8 Pitzer College                                Claremont        65880
##  9 San Francisco Art Institute                   San Francisco    65453
## 10 Pomona College                                Claremont        64870
## # … with 331 more rows
```

5. Based on your answer to #4, make a plot that compares the cost of the individual colleges in the most expensive city. Bonus! Add UC Davis here to see how it compares :>).

```r
colleges %>% 
  group_by(city) %>% 
  summarize(mean_cost=mean(costt4_a, na.rm = T)) %>% 
  arrange(desc(mean_cost))
```

```
## # A tibble: 161 x 2
##    city                mean_cost
##    <chr>                   <dbl>
##  1 Claremont               66498
##  2 Malibu                  66152
##  3 Valencia                64686
##  4 Orange                  64501
##  5 Redlands                61542
##  6 Moraga                  61095
##  7 Atherton                56035
##  8 Thousand Oaks           54373
##  9 Rancho Palos Verdes     50758
## 10 La Verne                50603
## # … with 151 more rows
```
…
