…
**4. What taxa are represented in the `homerange` data frame? Make a new data frame `taxa` that is restricted to taxon, common name, class, order, family, genus, species.**
***birds, lake fishes, lizards, mammals, marine fishes, river fishes, snakes, turtles, and tortoises are represented.***

```r
taxa <- select(homerange, "taxon", "common.name", "class", "order", "family", "genus", "species")
taxa
```

```
## # A tibble: 569 x 7
##    taxon     common.name       class      order     family    genus    species  
##    <fct>     <chr>             <chr>      <fct>     <chr>     <chr>    <chr>    
##  1 lake fis… american eel      actinopte… anguilli… anguilli… anguilla rostrata 
##  2 river fi… blacktail redhor… actinopte… cyprinif… catostom… moxosto… poecilura
##  3 river fi… central stonerol… actinopte… cyprinif… cyprinid… campost… anomalum 
##  4 river fi… rosyside dace     actinopte… cyprinif… cyprinid… clinost… funduloi…
##  5 river fi… longnose dace     actinopte… cyprinif… cyprinid… rhinich… cataract…
##  6 river fi… muskellunge       actinopte… esocifor… esocidae  esox     masquino…
##  7 marine f… pollack           actinopte… gadiform… gadidae   pollach… pollachi…
##  8 marine f… saithe            actinopte… gadiform… gadidae   pollach… virens   
##  9 marine f… lined surgeonfish actinopte… percifor… acanthur… acanthu… lineatus 
## 10 marine f… orangespine unic… actinopte… percifor… acanthur… naso     lituratus
## # … with 559 more rows
```
…
**10. As measured by the data, which snake species has the smallest homerange? Show all of your work, please. Look this species up online and tell me about it!** **Snake is found in taxon column**    
***The snake species with the smallest homerange is the Bitis schneideri, or the Namaqua dwarf adder. It is venomous and very small, and is found in southern Africa, between Namibia and South Africa. There is no antivenom for this species, but it isn't needed as bites are unlikely to be fatal.***

```r
snakes <- filter(homerange, taxon == "snakes")
```

```r
snakes <- arrange(snakes, desc(snakes$mean.hra.m2))
snakes
```

```
## # A tibble: 41 x 24
##    taxon common.name class order family genus species primarymethod N    
##    <fct> <chr>       <chr> <fct> <chr>  <chr> <chr>   <chr>         <chr>
##  1 snak… timber rat… rept… squa… viper… crot… horrid… telemetry     6    
##  2 snak… eastern in… rept… squa… colub… drym… couperi telemetry     1    
##  3 snak… midget fad… rept… squa… viper… crot… oregan… telemetry     21   
##  4 snak… pine snake  rept… squa… colub… pitu… melano… telemetry     12   
##  5 snak… hognose sn… rept… squa… colub… hete… platir… telemetry     8    
##  6 snak… Eastern ki… rept… squa… colub… lamp… getula… telemetry     12   
##  7 snak… coachwhip   rept… squa… colub… mast… flagel… telemetry     4    
##  8 snak… giant gart… rept… squa… colub… tham… gigal   telemetry     11   
##  9 snak… Mojave rat… rept… squa… viper… crot… scutul… telemetry     19   
## 10 snak… Armenian v… rept… squa… viper… mont… raddei  telemetry     14   
## # … with 31 more rows, and 15 more variables: mean.mass.g <dbl>,
## #   log10.mass <dbl>, alternative.mass.reference <chr>, mean.hra.m2 <dbl>,
## #   log10.hra <dbl>, hra.reference <chr>, realm <chr>, thermoregulation <chr>,
## #   locomotion <chr>, trophic.guild <chr>, dimension <chr>, preymass <dbl>,
## #   log10.preymass <dbl>, PPMR <dbl>, prey.size.reference <chr>
```
…
